# Blender MTL File: 'ucking_cup.blend'
# Material Count: 2

newmtl Material.042
Ns 37.254902
Ka 1.000000 1.000000 1.000000
Kd 0.056171 0.025193 0.020660
Ks 0.081276 0.075069 0.071304
Ke 0.000000 0.000000 0.000000
Ni 1.000000
d 1.000000
illum 2

newmtl Material.043
Ns 94.117647
Ka 1.000000 1.000000 1.000000
Kd 0.532310 0.560882 0.537955
Ks 0.385135 0.385135 0.385135
Ke 0.000000 0.000000 0.000000
Ni 1.000000
d 1.000000
illum 2
