OFF
33 64 0
-0.2123150229454041 -0.0132092684507370 -0.5499997735023499
-0.2123150229454041 -0.0132092386484146 -0.1499549448490143
-0.2021551728248596 -0.0132092386484146 -0.1499549448490143
0.0766062512993813 -0.0132092237472534 0.0119679570198059
-0.0948415100574493 -0.0132092237472534 -0.0197816491127014
-0.0948415100574493 -0.0132092237472534 0.0119679570198059
0.1940797269344330 -0.0132092088460922 -0.1499549448490143
0.1940797269344330 -0.0132092386484146 -0.5499997735023499
0.1839198917150497 -0.0132092088460922 -0.1499549448490143
0.0766062512993813 -0.0132092237472534 -0.0197816491127014
0.0797812342643738 -0.0132092237472534 -0.0197816491127014
0.1839198917150497 -0.0132092088460922 0.1370614171028137
0.0797812342643738 -0.0132092237472534 0.0119679570198059
-0.2021551728248596 -0.0132092386484146 0.1370614171028137
-0.0980165004730225 -0.0132092237472534 0.0119679570198059
-0.0980165004730225 -0.0132092237472534 -0.0197816491127014
0.1940797865390778 -0.4450036883354187 -0.1499549150466919
0.1940797865390778 -0.4450036883354187 -0.5499997735023499
-0.2123149633407593 -0.4450037479400635 -0.1499549150466919
-0.2123149633407593 -0.4450037479400635 -0.5499997735023499
-0.2021551132202148 -0.4450037479400635 -0.1499549150466919
0.1940797865390778 -0.4450036883354187 -0.1499549150466919
0.1839199215173721 -0.4450036883354187 -0.1499549150466919
0.1839199215173721 -0.4450036585330963 0.1370614171028137
-0.2021551132202148 -0.4450036585330963 0.1370614171028137
0.0797812193632126 0.0439400374889374 -0.0197816491127014
0.0797812193632126 0.0439400374889374 0.0119679570198059
-0.0948415249586105 0.0407650172710419 -0.0197816491127014
-0.0980165153741837 0.0439400076866150 -0.0197816491127014
0.0766062512993813 0.0407650470733643 -0.0197816491127014
-0.0980165153741837 0.0439400076866150 0.0119679570198059
0.0766062512993813 0.0407650470733643 0.0119679570198059
-0.0948415249586105 0.0407650172710419 0.0119679570198059
3 0 1 2
3 3 4 5
3 6 7 8
3 8 7 0
3 0 9 8
3 8 9 10
3 8 10 11
3 11 10 12
3 12 3 11
3 11 3 5
3 11 5 13
3 13 5 14
3 13 14 2
3 2 14 15
3 2 15 0
3 0 15 4
3 0 4 9
3 9 4 3
3 16 17 6
3 6 17 7
3 1 0 18
3 18 0 19
3 20 18 19
3 17 21 22
3 23 24 22
3 22 24 20
3 22 20 17
3 17 20 19
3 19 0 17
3 17 0 7
3 25 26 10
3 10 26 12
3 4 15 27
3 27 15 28
3 27 28 29
3 29 28 25
3 29 25 9
3 9 25 10
3 30 28 14
3 14 28 15
3 3 12 31
3 31 12 26
3 31 26 32
3 32 26 30
3 32 30 5
3 5 30 14
3 28 30 25
3 25 30 26
3 31 29 3
3 3 29 9
3 5 4 32
3 32 4 27
3 32 27 31
3 31 27 29
3 18 20 1
3 1 20 2
3 20 24 2
3 2 24 13
3 24 23 13
3 13 23 11
3 23 22 11
3 11 22 8
3 22 21 8
3 8 21 6
