####
#
# OBJ File Generated by Meshlab
#
####
# Object red solo cup.obj
#
# Vertices: 397
# Faces: 790
#
####
vn 0.028423 0.000000 -0.487993
v 49.150002 107.340004 0.000000
vn 0.062912 0.000000 -1.080146
v 54.855968 110.379997 0.332337
vn 0.091334 0.000000 -1.568139
v 54.855968 107.340004 0.332337
vn 0.084883 0.000000 -0.481393
v 60.484772 110.379997 1.324847
vn 0.272766 0.000000 -1.546932
v 60.484772 107.340004 1.324847
vn 0.140195 0.000000 -0.468285
v 65.960289 110.379997 2.964109
vn 0.450509 0.000000 -1.504807
v 65.960289 107.340004 2.964109
vn 0.193612 0.000000 -0.448842
v 71.208481 110.379997 5.227957
vn 0.622160 0.000000 -1.442331
v 71.208481 107.340004 5.227957
vn 0.244410 0.000000 -0.423331
v 76.158363 110.379997 8.085776
vn 0.785399 0.000000 -1.360349
v 76.158363 107.340004 8.085776
vn 0.291903 0.000000 -0.392094
v 80.743011 110.379997 11.498917
vn 0.938014 0.000000 -1.259973
v 80.743011 107.340004 11.498917
vn 0.335448 0.000000 -0.355555
v 84.900414 110.379997 15.421223
vn 1.077946 0.000000 -1.142556
v 84.900414 107.340004 15.421223
vn 0.374458 0.000000 -0.314207
v 88.574356 110.379997 19.799658
vn 1.203300 0.000000 -1.009688
v 88.574356 107.340004 19.799658
vn 0.408403 0.000000 -0.268611
v 91.715149 110.379997 24.575001
vn 1.312381 0.000000 -0.863167
v 91.715149 107.340004 24.575001
vn 0.436826 0.000000 -0.219382
v 94.280319 110.379997 29.682680
vn 1.403715 0.000000 -0.704971
v 94.280319 107.340004 29.682680
vn 0.459340 0.000000 -0.167186
v 96.235184 110.379997 35.053623
vn 1.476066 0.000000 -0.537244
v 96.235184 107.340004 35.053623
vn 0.475644 0.000000 -0.112730
v 97.553299 110.379997 40.615192
vn 1.528455 0.000000 -0.362250
v 97.553299 107.340004 40.615192
vn 0.485514 0.000000 -0.056749
v 98.216850 110.379997 46.292183
vn 1.560175 0.000000 -0.182360
v 98.216850 107.340004 46.292183
vn 0.488820 0.000000 0.000000
v 98.216850 110.379997 52.007820
vn 1.570796 0.000000 0.000000
v 98.216850 107.340004 52.007820
vn 0.485514 0.000000 0.056749
v 97.553299 110.379997 57.684811
vn 1.560175 0.000000 0.182360
v 97.553299 107.340004 57.684811
vn 0.475644 0.000000 0.112730
v 96.235184 110.379997 63.246380
vn 1.528455 0.000000 0.362250
v 96.235184 107.340004 63.246380
vn 0.459340 0.000000 0.167186
v 94.280319 110.379997 68.617325
vn 1.476066 0.000000 0.537244
v 94.280319 107.340004 68.617325
vn 0.436826 0.000000 0.219382
v 91.715149 110.379997 73.724998
vn 1.403715 0.000000 0.704972
v 91.715149 107.340004 73.724998
vn 0.408403 0.000000 0.268611
v 88.574356 110.379997 78.500343
vn 1.312381 0.000000 0.863167
v 88.574356 107.340004 78.500343
vn 0.374458 0.000000 0.314207
v 84.900414 110.379997 82.878777
vn 1.203300 0.000000 1.009689
v 84.900414 107.340004 82.878777
vn 0.335449 0.000000 0.355554
v 80.743011 110.379997 86.801086
vn 1.077946 0.000000 1.142555
v 80.743011 107.340004 86.801086
vn 0.291903 0.000000 0.392094
v 76.158363 110.379997 90.214226
vn 0.938014 0.000000 1.259973
v 76.158363 107.340004 90.214226
vn 0.244410 0.000000 0.423331
v 71.208481 110.379997 93.072044
vn 0.785399 0.000000 1.360349
v 71.208481 107.340004 93.072044
vn 0.193611 0.000000 0.448842
v 65.960289 110.379997 95.335892
vn 0.622160 0.000000 1.442331
v 65.960289 107.340004 95.335892
vn 0.140195 0.000000 0.468284
v 60.484772 110.379997 96.975159
vn 0.450511 0.000000 1.504806
v 60.484772 107.340004 96.975159
vn 0.084883 0.000000 0.481394
v 54.855968 110.379997 97.967667
vn 0.272765 0.000000 1.546933
v 54.855968 107.340004 97.967667
vn 0.028422 0.000000 0.487993
v 49.150002 110.379997 98.300003
vn 0.091334 0.000000 1.568139
v 49.150002 107.340004 98.300003
vn -0.028422 0.000000 0.487993
v 43.444035 110.379997 97.967667
vn -0.091334 0.000000 1.568139
v 43.444035 107.340004 97.967667
vn -0.084883 0.000000 0.481394
v 37.815231 110.379997 96.975159
vn -0.272765 0.000000 1.546933
v 37.815231 107.340004 96.975159
vn -0.140195 0.000000 0.468284
v 32.339710 110.379997 95.335892
vn -0.450510 0.000000 1.504806
v 32.339710 107.340004 95.335892
vn -0.193612 0.000000 0.448842
v 27.091522 110.379997 93.072044
vn -0.622161 0.000000 1.442330
v 27.091522 107.340004 93.072044
vn -0.244410 0.000000 0.423330
v 22.141636 110.379997 90.214226
vn -0.785398 0.000000 1.360350
v 22.141636 107.340004 90.214226
vn -0.291903 0.000000 0.392094
v 17.556992 110.379997 86.801086
vn -0.938014 0.000000 1.259972
v 17.556992 107.340004 86.801086
vn -0.335448 0.000000 0.355554
v 13.399586 110.379997 82.878777
vn -1.077946 0.000000 1.142556
v 13.399586 107.340004 82.878777
vn -0.374458 0.000000 0.314207
v 9.725645 110.379997 78.500343
vn -1.203300 0.000000 1.009688
v 9.725645 107.340004 78.500343
vn -0.408403 0.000000 0.268611
v 6.584853 110.379997 73.724998
vn -1.312382 0.000000 0.863166
v 6.584853 107.340004 73.724998
vn -0.436826 0.000000 0.219382
v 4.019681 110.379997 68.617325
vn -1.403715 0.000000 0.704973
v 4.019681 107.340004 68.617325
vn -0.459340 0.000000 0.167186
v 2.064817 110.379997 63.246380
vn -1.476066 0.000000 0.537244
v 2.064817 107.340004 63.246380
vn -0.475644 0.000000 0.112730
v 0.746701 110.379997 57.684811
vn -1.528455 0.000000 0.362251
v 0.746701 107.340004 57.684811
vn -0.485514 0.000000 0.056748
v 0.083156 110.379997 52.007820
vn -1.560175 0.000000 0.182358
v 0.083156 107.340004 52.007820
vn -0.488820 0.000000 0.000000
v 0.083156 110.379997 46.292183
vn -1.570796 0.000000 0.000000
v 0.083156 107.340004 46.292183
vn -0.485514 0.000000 -0.056748
v 0.746701 110.379997 40.615192
vn -1.560175 0.000000 -0.182358
v 0.746701 107.340004 40.615192
vn -0.475644 0.000000 -0.112730
v 2.064817 110.379997 35.053623
vn -1.528455 0.000000 -0.362251
v 2.064817 107.340004 35.053623
vn -0.459340 0.000000 -0.167186
v 4.019681 110.379997 29.682680
vn -1.476066 0.000000 -0.537244
v 4.019681 107.340004 29.682680
vn -0.436825 0.000000 -0.219382
v 6.584853 110.379997 24.575001
vn -1.403715 0.000000 -0.704972
v 6.584853 107.340004 24.575001
vn -0.408403 0.000000 -0.268611
v 9.725645 110.379997 19.799658
vn -1.312381 0.000000 -0.863167
v 9.725645 107.340004 19.799658
vn -0.374458 0.000000 -0.314207
v 13.399586 110.379997 15.421223
vn -1.203300 0.000000 -1.009688
v 13.399586 107.340004 15.421223
vn -0.335448 0.000000 -0.355555
v 17.556992 110.379997 11.498917
vn -1.077945 0.000000 -1.142556
v 17.556992 107.340004 11.498917
vn -0.291903 0.000000 -0.392094
v 22.141636 110.379997 8.085776
vn -0.938014 0.000000 -1.259972
v 22.141636 107.340004 8.085776
vn -0.244410 0.000000 -0.423330
v 27.091522 110.379997 5.227957
vn -0.785398 0.000000 -1.360349
v 27.091522 107.340004 5.227957
vn -0.193612 0.000000 -0.448842
v 32.339710 110.379997 2.964109
vn -0.622161 0.000000 -1.442330
v 32.339710 107.340004 2.964109
vn -0.140195 0.000000 -0.468284
v 37.815231 110.379997 1.324847
vn -0.450509 0.000000 -1.504807
v 37.815231 107.340004 1.324847
vn -0.084883 0.000000 -0.481393
v 43.444035 110.379997 0.332337
vn -0.272766 0.000000 -1.546932
v 43.444035 107.340004 0.332337
vn -0.028423 0.000000 -0.487993
v 49.150002 110.379997 0.000000
vn 0.000000 1.235692 0.000000
v 20.405869 110.379997 18.540607
vn 0.000000 1.207804 0.000000
v 16.796150 110.379997 22.384567
vn 0.000000 1.153625 0.000000
v 13.696671 110.379997 26.650633
vn 0.000000 1.101649 0.000000
v 11.156313 110.379997 31.271528
vn 0.000000 1.051929 0.000000
v 9.215138 110.379997 36.174377
vn 0.000000 1.004476 0.000000
v 7.903759 110.379997 41.281860
vn 0.000000 0.959266 0.000000
v 7.242858 110.379997 46.513428
vn 0.000000 0.916249 0.000000
v 7.242858 110.379997 51.786575
vn 0.000000 0.875354 0.000000
v 7.903759 110.379997 57.018143
vn 0.000000 0.836495 0.000000
v 9.215138 110.379997 62.125626
vn 0.000000 0.799579 0.000000
v 11.156313 110.379997 67.028473
vn 0.000000 0.764505 0.000000
v 13.696671 110.379997 71.649368
vn 0.000000 0.731169 0.000000
v 16.796150 110.379997 75.915436
vn 0.000000 1.235691 0.000000
v 77.894135 110.379997 79.759392
vn 0.000000 1.207805 0.000000
v 81.503853 110.379997 75.915436
vn 0.000000 1.153625 0.000000
v 84.603333 110.379997 71.649368
vn 0.000000 1.101649 0.000000
v 87.143692 110.379997 67.028473
vn 0.000000 1.051928 0.000000
v 89.084862 110.379997 62.125626
vn 0.000000 1.004477 0.000000
v 90.396248 110.379997 57.018143
vn 0.000000 0.959265 0.000000
v 91.057144 110.379997 51.786575
vn 0.000000 0.916249 0.000000
v 91.057144 110.379997 46.513428
vn 0.000000 0.875354 0.000000
v 90.396248 110.379997 41.281860
vn 0.000000 0.836494 0.000000
v 89.084862 110.379997 36.174377
vn 0.000000 0.799580 0.000000
v 87.143692 110.379997 31.271528
vn 0.000000 0.764505 0.000000
v 84.603333 110.379997 26.650633
vn 0.000000 0.731169 0.000000
v 81.503853 110.379997 22.384567
vn 0.000000 1.235691 0.000000
v 20.405869 110.379997 79.759392
vn 0.000000 1.180445 0.000000
v 24.468899 110.379997 83.120628
vn 0.000000 1.127356 0.000000
v 28.921165 110.379997 85.946121
vn 0.000000 1.076505 0.000000
v 33.692451 110.379997 88.191315
vn 0.000000 1.027920 0.000000
v 38.707512 110.379997 89.820808
vn 0.000000 0.981593 0.000000
v 43.887260 110.379997 90.808899
vn 0.000000 0.937487 0.000000
v 49.150002 110.379997 91.139999
vn 0.000000 0.895542 0.000000
v 54.412743 110.379997 90.808899
vn 0.000000 0.855675 0.000000
v 59.592491 110.379997 89.820808
vn 0.000000 0.817801 0.000000
v 64.607552 110.379997 88.191315
vn 0.000000 0.781819 0.000000
v 69.378838 110.379997 85.946121
vn 0.000000 0.747626 0.000000
v 73.831100 110.379997 83.120628
vn 0.000000 1.235692 0.000000
v 77.894135 110.379997 18.540607
vn 0.000000 1.180443 0.000000
v 73.831100 110.379997 15.179377
vn 0.000000 1.127357 0.000000
v 69.378838 110.379997 12.353882
vn 0.000000 1.076505 0.000000
v 64.607552 110.379997 10.108687
vn 0.000000 1.027921 0.000000
v 59.592491 110.379997 8.479193
vn 0.000000 0.981593 0.000000
v 54.412743 110.379997 7.491104
vn 0.000000 0.937487 0.000000
v 49.150002 110.379997 7.160000
vn 0.000000 0.895541 0.000000
v 43.887260 110.379997 7.491104
vn 0.000000 0.855676 0.000000
v 38.707512 110.379997 8.479193
vn 0.000000 0.817800 0.000000
v 33.692451 110.379997 10.108687
vn 0.000000 0.781819 0.000000
v 28.921165 110.379997 12.353882
vn 0.000000 0.747626 0.000000
v 24.468899 110.379997 15.179377
vn 0.000000 -1.101963 0.000000
v 46.411156 107.340004 93.555618
vn 0.000000 -0.995586 0.000000
v 40.974983 107.340004 92.882477
vn 0.000000 -0.946913 0.000000
v 35.662739 107.340004 91.546387
vn 0.000000 -0.901130 0.000000
v 30.554945 107.340004 89.567619
vn 0.000000 -0.858103 0.000000
v 25.729034 107.340004 86.976166
vn 0.000000 -0.817683 0.000000
v 21.258160 107.340004 83.811295
vn 0.000000 -0.779716 0.000000
v 17.210100 107.340004 80.121002
vn 0.000000 -0.744035 0.000000
v 13.646215 107.340004 75.961212
vn 0.000000 -0.710484 0.000000
v 10.620531 107.340004 71.394997
vn 0.000000 -0.678907 0.000000
v 8.178916 107.340004 66.491577
vn 0.000000 -0.649154 0.000000
v 6.358377 107.340004 61.325268
vn 0.000000 -0.621088 0.000000
v 5.186521 107.340004 55.974396
vn 0.000000 -0.594578 0.000000
v 4.681103 107.340004 50.520073
vn 0.000000 -0.569503 0.000000
v 4.849788 107.340004 45.044983
vn 0.000000 -0.545752 0.000000
v 5.690020 107.340004 39.632118
vn 0.000000 -0.523221 0.000000
v 7.189062 107.340004 34.363537
vn 0.000000 -0.501816 0.000000
v 9.324185 107.340004 29.319101
vn 0.000000 -0.481451 0.000000
v 12.063030 107.340004 24.575283
vn 0.000000 -1.047249 0.000000
v 86.236969 107.340004 24.575283
vn 0.000000 -1.047249 0.000000
v 88.975815 107.340004 29.319101
vn 0.000000 -0.995586 0.000000
v 91.110939 107.340004 34.363537
vn 0.000000 -0.946914 0.000000
v 92.609985 107.340004 39.632118
vn 0.000000 -0.901128 0.000000
v 93.450218 107.340004 45.044983
vn 0.000000 -0.858102 0.000000
v 93.618896 107.340004 50.520073
vn 0.000000 -0.817685 0.000000
v 93.113480 107.340004 55.974396
vn 0.000000 -0.779716 0.000000
v 91.941628 107.340004 61.325268
vn 0.000000 -0.744035 0.000000
v 90.121086 107.340004 66.491577
vn 0.000000 -0.710485 0.000000
v 87.679474 107.340004 71.394997
vn 0.000000 -0.678906 0.000000
v 84.653786 107.340004 75.961212
vn 0.000000 -0.649155 0.000000
v 81.089905 107.340004 80.121002
vn 0.000000 -0.621087 0.000000
v 77.041840 107.340004 83.811295
vn 0.000000 -0.594579 0.000000
v 72.570969 107.340004 86.976166
vn 0.000000 -0.569502 0.000000
v 67.745056 107.340004 89.567619
vn 0.000000 -0.545752 0.000000
v 62.637264 107.340004 91.546387
vn 0.000000 -0.523221 0.000000
v 57.325016 107.340004 92.882477
vn 0.000000 -0.501816 0.000000
v 51.888847 107.340004 93.555618
vn 0.000000 -0.995586 0.000000
v 15.364077 107.340004 20.203993
vn 0.000000 -0.946914 0.000000
v 19.177282 107.340004 16.271494
vn 0.000000 -0.901129 0.000000
v 23.444845 107.340004 12.837399
vn 0.000000 -0.858102 0.000000
v 28.102068 107.340004 9.953767
vn 0.000000 -0.817684 0.000000
v 33.078358 107.340004 7.664312
vn 0.000000 -0.779716 0.000000
v 38.298279 107.340004 6.003734
vn 0.000000 -0.744035 0.000000
v 43.682701 107.340004 4.997212
vn 0.000000 -0.710484 0.000000
v 49.150002 107.340004 4.660003
vn 0.000000 -0.678907 0.000000
v 54.617302 107.340004 4.997212
vn 0.000000 -0.649154 0.000000
v 60.001724 107.340004 6.003734
vn 0.000000 -0.621088 0.000000
v 65.221642 107.340004 7.664312
vn 0.000000 -0.594578 0.000000
v 70.197937 107.340004 9.953767
vn 0.000000 -0.569503 0.000000
v 74.855156 107.340004 12.837399
vn 0.000000 -0.545751 0.000000
v 79.122719 107.340004 16.271494
vn 0.000000 -0.523221 0.000000
v 82.935928 107.340004 20.203993
vn -0.038807 -0.006965 -0.037630
v 25.130136 7.720001 28.571041
vn 0.000000 -0.006965 0.054054
v 51.097164 7.720001 80.719864
vn 0.038805 -0.006965 -0.037628
v 70.458893 7.720001 25.775257
vn 0.287704 -0.201741 -1.539075
v 56.864956 7.720001 18.475468
vn 0.279083 -0.195695 -1.492956
v 53.748669 7.720001 17.892931
vn 0.465581 -0.197883 -1.463527
v 58.245537 7.720001 18.914661
vn 0.474656 -0.201740 -1.492054
v 60.576023 7.720001 19.656042
vn 0.638914 -0.196962 -1.388720
v 62.550770 7.720001 20.564571
vn 0.654414 -0.201741 -1.422416
v 64.113884 7.720001 21.283716
vn 0.800965 -0.196040 -1.293601
v 66.578285 7.720001 22.809612
vn 0.824251 -0.201741 -1.331216
v 67.424904 7.720001 23.333815
vn 1.004016 -0.206346 -1.247676
v 70.247437 7.720001 25.605097
vn 0.043142 -0.006966 -0.032579
v 73.442520 7.720001 28.932095
vn 1.249489 -0.201741 -0.943559
v 73.169868 7.720001 28.571041
vn 0.046827 -0.006967 -0.027036
v 76.105194 7.720001 32.698040
vn 1.355966 -0.201740 -0.782868
v 75.516724 7.720001 31.678780
vn 0.049797 -0.006967 -0.021077
v 78.205200 7.720001 36.802788
vn 1.441893 -0.201741 -0.610303
v 77.463882 7.720001 35.051361
vn 0.052008 -0.006967 -0.014798
v 79.700691 7.720001 41.164173
vn 1.505963 -0.201740 -0.428485
v 78.981834 7.720001 38.637669
vn 0.054030 -0.006965 -0.001665
v 80.644928 7.720001 46.231567
vn 1.526456 -0.199035 -0.236960
v 80.561638 7.720001 45.695026
vn 1.547205 -0.201741 -0.240170
v 80.047569 7.720001 42.383331
vn 0.053827 -0.006965 0.004988
v 80.748161 7.720001 50.304207
vn 1.559056 -0.201740 0.144454
v 80.764854 7.720001 50.124043
vn 0.052815 -0.006966 0.011567
v 80.211876 7.720001 54.885986
vn 1.529484 -0.201740 0.334975
v 80.405533 7.720001 54.001755
vn 0.050998 -0.006967 0.017971
v 79.030670 7.720001 59.343250
vn 1.476730 -0.201741 0.520378
v 79.572403 7.720001 57.805920
vn 0.048404 -0.006967 0.024102
v 77.228416 7.720001 63.586941
vn 1.401589 -0.201740 0.697906
v 78.278107 7.720001 61.478870
vn 0.045070 -0.006966 0.029865
v 74.841133 7.720001 67.532181
vn 1.305200 -0.201740 0.864858
v 76.542259 7.720001 64.964928
vn 1.147988 -0.194777 0.983516
v 71.857452 7.720001 71.168617
vn 1.217535 -0.206576 1.043100
v 71.916306 7.720001 71.099922
vn 1.189028 -0.201740 1.018694
v 74.391167 7.720001 68.211243
vn 1.054827 -0.201740 1.157093
v 68.979507 7.720001 73.792206
vn 0.891987 -0.198920 1.260086
v 68.462440 7.720001 74.158226
vn 0.904642 -0.201741 1.277947
v 65.800972 7.720001 76.042244
vn 0.727003 -0.197999 1.353844
v 64.604431 7.720001 76.684776
vn 0.740736 -0.201740 1.379433
v 62.370026 7.720001 77.884621
vn 0.552534 -0.197077 1.426253
v 60.427597 7.720001 78.637123
vn 0.565612 -0.201740 1.460003
v 58.738674 7.720001 79.291420
vn 0.371329 -0.196155 1.476409
v 56.015511 7.720001 79.976318
vn 0.381905 -0.201741 1.518445
v 54.961971 7.720001 80.241295
vn 0.196707 -0.206232 1.588454
v 51.456345 7.720001 80.675385
vn -0.006643 -0.006965 0.053650
v 46.843658 7.720001 80.675385
vn -0.192424 -0.201740 1.553867
v 47.202839 7.720001 80.719864
vn -0.013189 -0.006967 0.052437
v 42.284492 7.720001 79.976318
vn -0.381905 -0.201741 1.518445
v 43.338032 7.720001 80.241295
vn -0.019533 -0.006967 0.050421
v 37.872406 7.720001 78.637123
vn -0.565613 -0.201740 1.460003
v 39.561325 7.720001 79.291420
vn -0.025581 -0.006967 0.047639
v 33.695576 7.720001 76.684776
vn -0.740737 -0.201740 1.379432
v 35.929977 7.720001 77.884621
vn -0.036415 -0.006965 0.039946
v 29.320494 7.720001 73.792206
vn -0.891987 -0.198920 1.260087
v 29.837561 7.720001 74.158226
vn -0.904641 -0.201741 1.277947
v 32.499031 7.720001 76.042244
vn -0.041049 -0.006965 0.035169
v 26.383698 7.720001 71.099922
vn -1.189000 -0.201742 1.018723
v 26.442554 7.720001 71.168617
vn -0.045071 -0.006966 0.029865
v 23.458868 7.720001 67.532181
vn -1.305197 -0.201740 0.864861
v 23.908834 7.720001 68.211243
vn -0.048403 -0.006967 0.024102
v 21.071589 7.720001 63.586941
vn -1.401588 -0.201740 0.697909
v 21.757746 7.720001 64.964928
vn -0.050998 -0.006967 0.017971
v 19.269333 7.720001 59.343250
vn -1.476730 -0.201740 0.520379
v 20.021894 7.720001 61.478870
vn -0.052815 -0.006966 0.011567
v 18.088123 7.720001 54.885986
vn -1.529485 -0.201741 0.334962
v 18.727598 7.720001 57.805920
vn -1.505232 -0.194775 0.139467
v 17.535151 7.720001 50.124043
vn -1.595539 -0.206461 0.147835
v 17.551844 7.720001 50.304207
vn -1.559055 -0.201740 0.144468
v 17.894472 7.720001 54.001755
vn -1.564992 -0.201740 -0.048216
v 17.655075 7.720001 46.231567
vn -1.526456 -0.199035 -0.236960
v 17.738365 7.720001 45.695026
vn -1.547205 -0.201740 -0.240169
v 18.252432 7.720001 42.383331
vn -1.478891 -0.198114 -0.420780
v 18.599312 7.720001 41.164173
vn -1.505964 -0.201740 -0.428484
v 19.318165 7.720001 38.637669
vn -1.409384 -0.197192 -0.596542
v 20.094805 7.720001 36.802788
vn -1.441894 -0.201741 -0.610300
v 20.836119 7.720001 35.051361
vn -1.319201 -0.196271 -0.761642
v 22.194811 7.720001 32.698040
vn -1.355966 -0.201741 -0.782867
v 22.783281 7.720001 31.678780
vn -1.276585 -0.206116 -0.964032
v 24.857481 7.720001 28.932095
vn -0.033891 -0.006965 -0.042117
v 28.052567 7.720001 25.605097
vn -0.981598 -0.201741 -1.219831
v 27.841108 7.720001 25.775257
vn -0.028464 -0.006967 -0.045971
v 31.721716 7.720001 22.809612
vn -0.824252 -0.201740 -1.331215
v 30.875099 7.720001 23.333815
vn -0.022601 -0.006967 -0.049125
v 35.749233 7.720001 20.564571
vn -0.654415 -0.201741 -1.422415
v 34.186123 7.720001 21.283716
vn -0.016392 -0.006967 -0.051527
v 40.054466 7.720001 18.914661
vn -0.474656 -0.201740 -1.492054
v 37.723980 7.720001 19.656042
vn 0.287704 -0.201740 -1.539075
v 53.036942 7.720001 17.759886
vn 0.093060 -0.194776 -1.508814
v 49.150002 7.720001 17.520149
vn -0.093060 -0.194776 -1.508814
v 45.263062 7.720001 17.759886
vn -0.283516 -0.198805 -1.516680
v 44.551334 7.720001 17.892931
vn -0.287704 -0.201740 -1.539075
v 41.435047 7.720001 18.475468
vn -0.293419 0.201745 -1.538157
v 52.800941 10.760002 78.050156
vn -0.283668 0.195041 -1.487039
v 56.394302 10.760002 77.364685
vn -0.467806 0.195041 -1.439761
v 59.873417 10.760002 76.234253
vn -0.644569 0.195041 -1.369775
v 63.183414 10.760002 74.676682
vn -0.811162 0.195041 -1.278190
v 66.272102 10.760002 72.716545
vn -0.964966 0.195041 -1.166444
v 69.090759 10.760002 70.384750
vn -1.103551 0.195041 -1.036305
v 71.594940 10.760002 67.718071
vn -1.224734 0.195041 -0.889820
v 73.745148 10.760002 64.758560
vn -1.326601 0.195041 -0.729303
v 75.507477 10.760002 61.552887
vn -1.407545 0.195041 -0.557289
v 76.854141 10.760002 58.151619
vn -1.466293 0.195041 -0.376479
v 77.763885 10.760002 54.608391
vn -1.501917 0.195041 -0.189736
v 78.222374 10.760002 50.979080
vn -1.513854 0.195041 0.000000
v 78.222374 10.760002 47.320923
vn -1.501917 0.195041 0.189736
v 77.763885 10.760002 43.691612
vn -1.466293 0.195041 0.376479
v 76.854141 10.760002 40.148380
vn -1.407544 0.195041 0.557289
v 75.507477 10.760002 36.747112
vn -1.326600 0.195041 0.729304
v 73.745148 10.760002 33.541447
vn -1.224734 0.195041 0.889820
v 71.594940 10.760002 30.581934
vn -1.103552 0.195041 1.036304
v 69.090759 10.760002 27.915253
vn -0.964967 0.195041 1.166444
v 66.272102 10.760002 25.583456
vn -0.811162 0.195041 1.278189
v 63.183414 10.760002 23.623318
vn -0.644568 0.195041 1.369776
v 59.873417 10.760002 22.065750
vn -0.467806 0.195041 1.439761
v 56.394302 10.760002 20.935318
vn -0.283668 0.195041 1.487039
v 52.800941 10.760002 20.249847
vn -0.095056 0.195041 1.510866
v 49.150002 10.760002 20.020149
vn 0.095056 0.195041 1.510866
v 45.499062 10.760002 20.249847
vn 0.283668 0.195041 1.487039
v 41.905701 10.760002 20.935318
vn 0.467806 0.195041 1.439761
v 38.426586 10.760002 22.065750
vn 0.644568 0.195041 1.369776
v 35.116589 10.760002 23.623318
vn 0.811163 0.195041 1.278189
v 32.027905 10.760002 25.583456
vn 0.964966 0.195041 1.166445
v 29.209246 10.760002 27.915253
vn 1.103552 0.195041 1.036304
v 26.705065 10.760002 30.581934
vn 1.224733 0.195041 0.889821
v 24.554853 10.760002 33.541447
vn 1.326600 0.195041 0.729304
v 22.792524 10.760002 36.747112
vn 1.407545 0.195041 0.557287
v 21.445866 10.760002 40.148380
vn 1.466293 0.195041 0.376480
v 20.536119 10.760002 43.691612
vn 1.501917 0.195041 0.189736
v 20.077631 10.760002 47.320923
vn 1.513854 0.195041 0.000000
v 20.077631 10.760002 50.979080
vn 1.501917 0.195041 -0.189736
v 20.536119 10.760002 54.608391
vn 1.466293 0.195041 -0.376480
v 21.445866 10.760002 58.151619
vn 1.407545 0.195041 -0.557287
v 22.792524 10.760002 61.552887
vn 1.326601 0.195041 -0.729303
v 24.554853 10.760002 64.758560
vn 1.224733 0.195041 -0.889821
v 26.705065 10.760002 67.718071
vn 1.103551 0.195041 -1.036305
v 29.209246 10.760002 70.384750
vn 0.964966 0.195041 -1.166445
v 32.027905 10.760002 72.716545
vn 0.811163 0.195041 -1.278189
v 35.116589 10.760002 74.676682
vn 0.644569 0.195041 -1.369775
v 38.426586 10.760002 76.234253
vn 0.467806 0.195041 -1.439761
v 41.905701 10.760002 77.364685
vn 0.283668 0.195041 -1.487039
v 45.499062 10.760002 78.050156
vn 0.095056 0.195041 -1.510866
v 49.150002 10.760002 78.279854
vn 0.000000 0.125664 0.000000
v 49.150002 10.760002 49.150002
vn 0.107939 -0.095023 -1.474772
v 53.689434 0.000000 18.305061
vn 0.080702 -0.071046 -1.102636
v 49.150002 0.000000 17.972818
vn 0.301519 -0.094148 -1.353560
v 58.132118 0.000000 19.294712
vn 0.463650 -0.090038 -1.212259
v 62.383366 0.000000 20.920675
vn 0.593844 -0.083357 -1.058116
v 66.352562 0.000000 23.148298
vn 0.693038 -0.074698 -0.897515
v 69.955124 0.000000 25.930103
vn 0.325733 -0.028358 -0.315852
v 73.114250 0.000000 29.206797
vn 1.155631 -0.094894 -0.826783
v 75.762627 0.000000 32.908550
vn 1.183504 -0.091915 -0.608482
v 77.843803 0.000000 36.956459
vn 1.177847 -0.086124 -0.401825
v 79.313416 0.000000 41.264252
vn 0.403973 -0.022422 -0.062708
v 80.140152 0.000000 45.740116
vn 1.547863 -0.093130 -0.056568
v 80.306381 0.000000 50.288654
vn 1.446771 -0.095147 0.159190
v 79.808571 0.000000 54.812927
vn 1.319823 -0.093397 0.345047
v 78.657326 0.000000 59.216503
vn 1.174661 -0.088584 0.499177
v 76.877182 0.000000 63.405529
vn 1.018345 -0.081357 0.621485
v 74.506088 0.000000 67.290726
vn 0.857003 -0.072284 0.713205
v 71.594566 0.000000 70.789276
vn 0.301889 -0.028823 0.331157
v 68.204674 0.000000 73.826630
vn 0.771421 -0.094449 1.166004
v 64.408669 0.000000 76.338043
vn 0.555524 -0.090705 1.185041
v 60.287453 0.000000 78.269989
vn 0.352539 -0.084312 1.171784
v 55.928864 0.000000 79.581299
vn 0.052642 -0.023963 0.425123
v 51.425789 0.000000 80.244011
vn 0.000000 -0.094027 1.525439
v 46.874214 0.000000 80.244011
vn -0.208561 -0.095034 1.417154
v 42.371140 0.000000 79.581299
vn -0.386585 -0.092455 1.284951
v 38.012547 0.000000 78.269989
vn -0.532708 -0.086979 1.136370
v 33.891331 0.000000 76.338043
vn -0.230476 -0.021680 0.325583
v 30.095325 0.000000 73.826630
vn -1.041443 -0.092577 1.162319
v 26.705439 0.000000 70.789276
vn -1.127678 -0.095114 0.938462
v 23.793917 0.000000 67.290726
vn -1.174061 -0.093797 0.716518
v 21.422819 0.000000 63.405529
vn -1.184557 -0.089330 0.503382
v 19.642675 0.000000 59.216503
vn -1.164025 -0.082372 0.304316
v 18.491430 0.000000 54.812927
vn -1.117659 -0.073503 0.122978
v 17.993618 0.000000 50.288654
vn -0.450736 -0.028588 -0.013887
v 18.159851 0.000000 45.740116
vn -1.386043 -0.094698 -0.256015
v 18.986584 0.000000 41.264252
vn -1.249059 -0.091331 -0.426120
v 20.456200 0.000000 36.956459
vn -1.097489 -0.085234 -0.564258
v 22.537373 0.000000 32.908550
vn -0.334077 -0.023183 -0.252283
v 25.185749 0.000000 29.206797
vn -1.106609 -0.093612 -1.066905
v 28.344881 0.000000 25.930103
vn -0.882500 -0.095119 -1.142875
v 31.947437 0.000000 23.148298
vn -0.662175 -0.092948 -1.179869
v 35.916637 0.000000 20.920675
vn -0.452127 -0.087800 -1.182132
v 40.167885 0.000000 19.294712
vn -0.257210 -0.080313 -1.154652
v 44.610565 0.000000 18.305061
vn 0.000000 -0.146120 0.000000
v 49.150002 0.000000 49.150002
# 397 vertices, 0 vertices normals

f 1//1 2//2 3//3
f 3//3 2//2 4//4
f 3//3 4//4 5//5
f 5//5 4//4 6//6
f 5//5 6//6 7//7
f 7//7 6//6 8//8
f 7//7 8//8 9//9
f 9//9 8//8 10//10
f 9//9 10//10 11//11
f 11//11 10//10 12//12
f 11//11 12//12 13//13
f 13//13 12//12 14//14
f 13//13 14//14 15//15
f 15//15 14//14 16//16
f 15//15 16//16 17//17
f 17//17 16//16 18//18
f 17//17 18//18 19//19
f 19//19 18//18 20//20
f 19//19 20//20 21//21
f 21//21 20//20 22//22
f 21//21 22//22 23//23
f 23//23 22//22 24//24
f 23//23 24//24 25//25
f 25//25 24//24 26//26
f 25//25 26//26 27//27
f 27//27 26//26 28//28
f 27//27 28//28 29//29
f 29//29 28//28 30//30
f 29//29 30//30 31//31
f 31//31 30//30 32//32
f 31//31 32//32 33//33
f 33//33 32//32 34//34
f 33//33 34//34 35//35
f 35//35 34//34 36//36
f 35//35 36//36 37//37
f 37//37 36//36 38//38
f 37//37 38//38 39//39
f 39//39 38//38 40//40
f 39//39 40//40 41//41
f 41//41 40//40 42//42
f 41//41 42//42 43//43
f 43//43 42//42 44//44
f 43//43 44//44 45//45
f 45//45 44//44 46//46
f 45//45 46//46 47//47
f 47//47 46//46 48//48
f 47//47 48//48 49//49
f 49//49 48//48 50//50
f 49//49 50//50 51//51
f 51//51 50//50 52//52
f 51//51 52//52 53//53
f 53//53 52//52 54//54
f 53//53 54//54 55//55
f 55//55 54//54 56//56
f 55//55 56//56 57//57
f 57//57 56//56 58//58
f 57//57 58//58 59//59
f 59//59 58//58 60//60
f 59//59 60//60 61//61
f 61//61 60//60 62//62
f 61//61 62//62 63//63
f 63//63 62//62 64//64
f 63//63 64//64 65//65
f 65//65 64//64 66//66
f 65//65 66//66 67//67
f 67//67 66//66 68//68
f 67//67 68//68 69//69
f 69//69 68//68 70//70
f 69//69 70//70 71//71
f 71//71 70//70 72//72
f 71//71 72//72 73//73
f 73//73 72//72 74//74
f 73//73 74//74 75//75
f 75//75 74//74 76//76
f 75//75 76//76 77//77
f 77//77 76//76 78//78
f 77//77 78//78 79//79
f 79//79 78//78 80//80
f 79//79 80//80 81//81
f 81//81 80//80 82//82
f 81//81 82//82 83//83
f 83//83 82//82 84//84
f 83//83 84//84 85//85
f 85//85 84//84 86//86
f 85//85 86//86 87//87
f 87//87 86//86 88//88
f 87//87 88//88 89//89
f 89//89 88//88 90//90
f 89//89 90//90 91//91
f 91//91 90//90 92//92
f 91//91 92//92 93//93
f 93//93 92//92 94//94
f 93//93 94//94 95//95
f 95//95 94//94 96//96
f 95//95 96//96 97//97
f 97//97 96//96 98//98
f 97//97 98//98 99//99
f 99//99 98//98 100//100
f 99//99 100//100 101//101
f 101//101 100//100 102//102
f 101//101 102//102 103//103
f 103//103 102//102 104//104
f 103//103 104//104 105//105
f 105//105 104//104 106//106
f 105//105 106//106 107//107
f 107//107 106//106 108//108
f 107//107 108//108 1//1
f 1//1 108//108 2//2
f 109//109 94//94 110//110
f 110//110 94//94 92//92
f 110//110 92//92 111//111
f 111//111 92//92 90//90
f 111//111 90//90 112//112
f 112//112 90//90 88//88
f 112//112 88//88 113//113
f 113//113 88//88 86//86
f 113//113 86//86 114//114
f 114//114 86//86 84//84
f 114//114 84//84 115//115
f 115//115 84//84 82//82
f 115//115 82//82 116//116
f 116//116 82//82 80//80
f 116//116 80//80 117//117
f 117//117 80//80 78//78
f 117//117 78//78 118//118
f 118//118 78//78 76//76
f 118//118 76//76 119//119
f 119//119 76//76 74//74
f 119//119 74//74 120//120
f 120//120 74//74 72//72
f 120//120 72//72 121//121
f 122//122 40//40 123//123
f 123//123 40//40 38//38
f 123//123 38//38 124//124
f 124//124 38//38 36//36
f 124//124 36//36 125//125
f 125//125 36//36 34//34
f 125//125 34//34 126//126
f 126//126 34//34 32//32
f 126//126 32//32 127//127
f 127//127 32//32 30//30
f 127//127 30//30 128//128
f 128//128 30//30 28//28
f 128//128 28//28 129//129
f 129//129 28//28 26//26
f 129//129 26//26 130//130
f 130//130 26//26 24//24
f 130//130 24//24 131//131
f 131//131 24//24 22//22
f 131//131 22//22 132//132
f 132//132 22//22 20//20
f 132//132 20//20 133//133
f 133//133 20//20 18//18
f 133//133 18//18 134//134
f 72//72 70//70 121//121
f 121//121 70//70 68//68
f 121//121 68//68 135//135
f 135//135 68//68 66//66
f 135//135 66//66 136//136
f 136//136 66//66 64//64
f 136//136 64//64 137//137
f 137//137 64//64 62//62
f 137//137 62//62 138//138
f 138//138 62//62 60//60
f 138//138 60//60 139//139
f 139//139 60//60 58//58
f 139//139 58//58 140//140
f 140//140 58//58 56//56
f 140//140 56//56 141//141
f 141//141 56//56 54//54
f 141//141 54//54 142//142
f 142//142 54//54 52//52
f 142//142 52//52 143//143
f 143//143 52//52 50//50
f 143//143 50//50 144//144
f 144//144 50//50 48//48
f 144//144 48//48 145//145
f 145//145 48//48 46//46
f 145//145 46//46 146//146
f 146//146 46//46 44//44
f 146//146 44//44 122//122
f 122//122 44//44 42//42
f 122//122 42//42 40//40
f 18//18 16//16 134//134
f 134//134 16//16 14//14
f 134//134 14//14 147//147
f 147//147 14//14 12//12
f 147//147 12//12 148//148
f 148//148 12//12 10//10
f 148//148 10//10 149//149
f 149//149 10//10 8//8
f 149//149 8//8 150//150
f 150//150 8//8 6//6
f 150//150 6//6 151//151
f 151//151 6//6 4//4
f 151//151 4//4 152//152
f 152//152 4//4 2//2
f 152//152 2//2 153//153
f 153//153 2//2 108//108
f 153//153 108//108 154//154
f 154//154 108//108 106//106
f 154//154 106//106 155//155
f 155//155 106//106 104//104
f 155//155 104//104 156//156
f 156//156 104//104 102//102
f 156//156 102//102 157//157
f 157//157 102//102 100//100
f 157//157 100//100 158//158
f 158//158 100//100 98//98
f 158//158 98//98 109//109
f 109//109 98//98 96//96
f 109//109 96//96 94//94
f 159//159 57//57 160//160
f 160//160 57//57 59//59
f 160//160 59//59 161//161
f 161//161 59//59 61//61
f 161//161 61//61 162//162
f 162//162 61//61 63//63
f 162//162 63//63 163//163
f 163//163 63//63 65//65
f 163//163 65//65 164//164
f 164//164 65//65 67//67
f 164//164 67//67 165//165
f 165//165 67//67 69//69
f 165//165 69//69 166//166
f 166//166 69//69 71//71
f 166//166 71//71 167//167
f 167//167 71//71 73//73
f 167//167 73//73 168//168
f 168//168 73//73 75//75
f 168//168 75//75 169//169
f 169//169 75//75 77//77
f 169//169 77//77 170//170
f 170//170 77//77 79//79
f 170//170 79//79 171//171
f 171//171 79//79 81//81
f 171//171 81//81 172//172
f 172//172 81//81 83//83
f 172//172 83//83 173//173
f 173//173 83//83 85//85
f 173//173 85//85 174//174
f 174//174 85//85 87//87
f 174//174 87//87 175//175
f 175//175 87//87 89//89
f 175//175 89//89 176//176
f 177//177 19//19 178//178
f 178//178 19//19 21//21
f 178//178 21//21 179//179
f 179//179 21//21 23//23
f 179//179 23//23 180//180
f 180//180 23//23 25//25
f 180//180 25//25 181//181
f 181//181 25//25 27//27
f 181//181 27//27 182//182
f 182//182 27//27 29//29
f 182//182 29//29 183//183
f 183//183 29//29 31//31
f 183//183 31//31 184//184
f 184//184 31//31 33//33
f 184//184 33//33 185//185
f 185//185 33//33 35//35
f 185//185 35//35 186//186
f 186//186 35//35 37//37
f 186//186 37//37 187//187
f 187//187 37//37 39//39
f 187//187 39//39 188//188
f 188//188 39//39 41//41
f 188//188 41//41 189//189
f 189//189 41//41 43//43
f 189//189 43//43 190//190
f 190//190 43//43 45//45
f 190//190 45//45 191//191
f 191//191 45//45 47//47
f 191//191 47//47 192//192
f 192//192 47//47 49//49
f 192//192 49//49 193//193
f 193//193 49//49 51//51
f 193//193 51//51 194//194
f 194//194 51//51 53//53
f 194//194 53//53 159//159
f 159//159 53//53 55//55
f 159//159 55//55 57//57
f 89//89 91//91 176//176
f 176//176 91//91 93//93
f 176//176 93//93 195//195
f 195//195 93//93 95//95
f 195//195 95//95 196//196
f 196//196 95//95 97//97
f 196//196 97//97 197//197
f 197//197 97//97 99//99
f 197//197 99//99 198//198
f 198//198 99//99 101//101
f 198//198 101//101 199//199
f 199//199 101//101 103//103
f 199//199 103//103 200//200
f 200//200 103//103 105//105
f 200//200 105//105 201//201
f 201//201 105//105 107//107
f 201//201 107//107 202//202
f 202//202 107//107 1//1
f 202//202 1//1 203//203
f 203//203 1//1 3//3
f 203//203 3//3 204//204
f 204//204 3//3 5//5
f 204//204 5//5 205//205
f 205//205 5//5 7//7
f 205//205 7//7 206//206
f 206//206 7//7 9//9
f 206//206 9//9 207//207
f 207//207 9//9 11//11
f 207//207 11//11 208//208
f 208//208 11//11 13//13
f 208//208 13//13 209//209
f 209//209 13//13 15//15
f 209//209 15//15 177//177
f 177//177 15//15 17//17
f 177//177 17//17 19//19
f 210//210 195//195 196//196
f 211//211 194//194 159//159
f 212//212 208//208 209//209
f 213//213 214//214 204//204
f 204//204 214//214 203//203
f 213//213 204//204 215//215
f 215//215 204//204 205//205
f 215//215 205//205 216//216
f 216//216 205//205 217//217
f 217//217 205//205 206//206
f 217//217 206//206 218//218
f 218//218 206//206 219//219
f 219//219 206//206 207//207
f 219//219 207//207 220//220
f 208//208 212//212 207//207
f 207//207 212//212 221//221
f 207//207 221//221 220//220
f 177//177 222//222 209//209
f 209//209 222//222 223//223
f 209//209 223//223 212//212
f 178//178 224//224 177//177
f 177//177 224//224 225//225
f 177//177 225//225 222//222
f 179//179 226//226 178//178
f 178//178 226//226 227//227
f 178//178 227//227 224//224
f 180//180 228//228 179//179
f 179//179 228//228 229//229
f 179//179 229//229 226//226
f 182//182 230//230 181//181
f 181//181 230//230 231//231
f 181//181 231//231 180//180
f 180//180 231//231 232//232
f 180//180 232//232 228//228
f 183//183 233//233 182//182
f 182//182 233//233 234//234
f 182//182 234//234 230//230
f 184//184 235//235 183//183
f 183//183 235//235 236//236
f 183//183 236//236 233//233
f 185//185 237//237 184//184
f 184//184 237//237 238//238
f 184//184 238//238 235//235
f 186//186 239//239 185//185
f 185//185 239//239 240//240
f 185//185 240//240 237//237
f 187//187 241//241 186//186
f 186//186 241//241 242//242
f 186//186 242//242 239//239
f 243//243 244//244 187//187
f 187//187 244//244 245//245
f 187//187 245//245 241//241
f 187//187 188//188 243//243
f 243//243 188//188 189//189
f 243//243 189//189 246//246
f 246//246 189//189 247//247
f 247//247 189//189 190//190
f 247//247 190//190 248//248
f 248//248 190//190 249//249
f 249//249 190//190 191//191
f 249//249 191//191 250//250
f 250//250 191//191 251//251
f 251//251 191//191 192//192
f 251//251 192//192 252//252
f 252//252 192//192 253//253
f 253//253 192//192 193//193
f 253//253 193//193 254//254
f 194//194 211//211 193//193
f 193//193 211//211 255//255
f 193//193 255//255 254//254
f 160//160 256//256 159//159
f 159//159 256//256 257//257
f 159//159 257//257 211//211
f 161//161 258//258 160//160
f 160//160 258//258 259//259
f 160//160 259//259 256//256
f 162//162 260//260 161//161
f 161//161 260//260 261//261
f 161//161 261//261 258//258
f 163//163 262//262 162//162
f 162//162 262//262 263//263
f 162//162 263//263 260//260
f 165//165 264//264 164//164
f 164//164 264//264 265//265
f 164//164 265//265 163//163
f 163//163 265//265 266//266
f 163//163 266//266 262//262
f 166//166 267//267 165//165
f 165//165 267//267 268//268
f 165//165 268//268 264//264
f 167//167 269//269 166//166
f 166//166 269//269 270//270
f 166//166 270//270 267//267
f 168//168 271//271 167//167
f 167//167 271//271 272//272
f 167//167 272//272 269//269
f 169//169 273//273 168//168
f 168//168 273//273 274//274
f 168//168 274//274 271//271
f 170//170 275//275 169//169
f 169//169 275//275 276//276
f 169//169 276//276 273//273
f 277//277 278//278 170//170
f 170//170 278//278 279//279
f 170//170 279//279 275//275
f 170//170 171//171 277//277
f 277//277 171//171 172//172
f 277//277 172//172 280//280
f 280//280 172//172 281//281
f 281//281 172//172 173//173
f 281//281 173//173 282//282
f 282//282 173//173 283//283
f 283//283 173//173 174//174
f 283//283 174//174 284//284
f 284//284 174//174 285//285
f 285//285 174//174 175//175
f 285//285 175//175 286//286
f 286//286 175//175 287//287
f 287//287 175//175 176//176
f 287//287 176//176 288//288
f 195//195 210//210 176//176
f 176//176 210//210 289//289
f 176//176 289//289 288//288
f 197//197 290//290 196//196
f 196//196 290//290 291//291
f 196//196 291//291 210//210
f 198//198 292//292 197//197
f 197//197 292//292 293//293
f 197//197 293//293 290//290
f 199//199 294//294 198//198
f 198//198 294//294 295//295
f 198//198 295//295 292//292
f 200//200 296//296 199//199
f 199//199 296//296 297//297
f 199//199 297//297 294//294
f 214//214 298//298 203//203
f 203//203 298//298 299//299
f 203//203 299//299 202//202
f 202//202 299//299 300//300
f 202//202 300//300 201//201
f 201//201 300//300 301//301
f 201//201 301//301 200//200
f 200//200 301//301 302//302
f 200//200 302//302 296//296
f 303//303 142//142 304//304
f 304//304 142//142 143//143
f 304//304 143//143 305//305
f 305//305 143//143 144//144
f 305//305 144//144 306//306
f 306//306 144//144 145//145
f 306//306 145//145 307//307
f 307//307 145//145 146//146
f 307//307 146//146 308//308
f 308//308 146//146 122//122
f 308//308 122//122 309//309
f 309//309 122//122 123//123
f 309//309 123//123 310//310
f 310//310 123//123 124//124
f 310//310 124//124 311//311
f 311//311 124//124 125//125
f 311//311 125//125 312//312
f 312//312 125//125 126//126
f 312//312 126//126 313//313
f 313//313 126//126 127//127
f 313//313 127//127 314//314
f 314//314 127//127 128//128
f 314//314 128//128 315//315
f 315//315 128//128 129//129
f 315//315 129//129 316//316
f 316//316 129//129 130//130
f 316//316 130//130 317//317
f 317//317 130//130 131//131
f 317//317 131//131 318//318
f 318//318 131//131 132//132
f 318//318 132//132 319//319
f 319//319 132//132 133//133
f 319//319 133//133 320//320
f 320//320 133//133 134//134
f 320//320 134//134 321//321
f 321//321 134//134 147//147
f 321//321 147//147 322//322
f 322//322 147//147 148//148
f 322//322 148//148 323//323
f 323//323 148//148 149//149
f 323//323 149//149 324//324
f 324//324 149//149 150//150
f 324//324 150//150 325//325
f 325//325 150//150 151//151
f 325//325 151//151 326//326
f 326//326 151//151 152//152
f 326//326 152//152 327//327
f 327//327 152//152 153//153
f 327//327 153//153 328//328
f 328//328 153//153 154//154
f 328//328 154//154 329//329
f 329//329 154//154 155//155
f 329//329 155//155 330//330
f 330//330 155//155 156//156
f 330//330 156//156 331//331
f 331//331 156//156 157//157
f 331//331 157//157 332//332
f 332//332 157//157 158//158
f 332//332 158//158 333//333
f 333//333 158//158 109//109
f 333//333 109//109 334//334
f 334//334 109//109 110//110
f 334//334 110//110 335//335
f 335//335 110//110 111//111
f 335//335 111//111 336//336
f 336//336 111//111 112//112
f 336//336 112//112 337//337
f 337//337 112//112 113//113
f 337//337 113//113 338//338
f 338//338 113//113 114//114
f 338//338 114//114 339//339
f 339//339 114//114 115//115
f 339//339 115//115 340//340
f 340//340 115//115 116//116
f 340//340 116//116 341//341
f 341//341 116//116 117//117
f 341//341 117//117 342//342
f 342//342 117//117 118//118
f 342//342 118//118 343//343
f 343//343 118//118 119//119
f 343//343 119//119 344//344
f 344//344 119//119 120//120
f 344//344 120//120 345//345
f 345//345 120//120 121//121
f 345//345 121//121 346//346
f 346//346 121//121 135//135
f 346//346 135//135 347//347
f 347//347 135//135 136//136
f 347//347 136//136 348//348
f 348//348 136//136 137//137
f 348//348 137//137 349//349
f 349//349 137//137 138//138
f 349//349 138//138 350//350
f 350//350 138//138 139//139
f 350//350 139//139 351//351
f 351//351 139//139 140//140
f 351//351 140//140 352//352
f 352//352 140//140 141//141
f 352//352 141//141 303//303
f 303//303 141//141 142//142
f 352//352 303//303 353//353
f 352//352 353//353 351//351
f 348//348 349//349 353//353
f 353//353 349//349 350//350
f 353//353 350//350 351//351
f 345//345 346//346 353//353
f 353//353 346//346 347//347
f 353//353 347//347 348//348
f 342//342 343//343 353//353
f 353//353 343//343 344//344
f 353//353 344//344 345//345
f 339//339 340//340 353//353
f 353//353 340//340 341//341
f 353//353 341//341 342//342
f 336//336 337//337 353//353
f 353//353 337//337 338//338
f 353//353 338//338 339//339
f 333//333 334//334 353//353
f 353//353 334//334 335//335
f 353//353 335//335 336//336
f 330//330 331//331 353//353
f 353//353 331//331 332//332
f 353//353 332//332 333//333
f 327//327 328//328 353//353
f 353//353 328//328 329//329
f 353//353 329//329 330//330
f 324//324 325//325 353//353
f 353//353 325//325 326//326
f 353//353 326//326 327//327
f 321//321 322//322 353//353
f 353//353 322//322 323//323
f 353//353 323//323 324//324
f 318//318 319//319 353//353
f 353//353 319//319 320//320
f 353//353 320//320 321//321
f 315//315 316//316 353//353
f 353//353 316//316 317//317
f 353//353 317//317 318//318
f 312//312 313//313 353//353
f 353//353 313//313 314//314
f 353//353 314//314 315//315
f 309//309 310//310 353//353
f 353//353 310//310 311//311
f 353//353 311//311 312//312
f 306//306 307//307 353//353
f 353//353 307//307 308//308
f 353//353 308//308 309//309
f 303//303 304//304 353//353
f 353//353 304//304 305//305
f 353//353 305//305 306//306
f 298//298 354//354 355//355
f 298//298 214//214 354//354
f 354//354 214//214 213//213
f 354//354 213//213 356//356
f 213//213 215//215 356//356
f 356//356 215//215 216//216
f 356//356 216//216 357//357
f 216//216 217//217 357//357
f 357//357 217//217 218//218
f 357//357 218//218 358//358
f 218//218 219//219 358//358
f 358//358 219//219 220//220
f 358//358 220//220 359//359
f 223//223 360//360 212//212
f 212//212 360//360 359//359
f 212//212 359//359 221//221
f 221//221 359//359 220//220
f 223//223 222//222 360//360
f 360//360 222//222 225//225
f 360//360 225//225 361//361
f 225//225 224//224 361//361
f 361//361 224//224 227//227
f 361//361 227//227 362//362
f 227//227 226//226 362//362
f 362//362 226//226 229//229
f 362//362 229//229 363//363
f 231//231 364//364 232//232
f 232//232 364//364 363//363
f 232//232 363//363 228//228
f 228//228 363//363 229//229
f 231//231 230//230 364//364
f 364//364 230//230 234//234
f 364//364 234//234 365//365
f 234//234 233//233 365//365
f 365//365 233//233 236//236
f 365//365 236//236 366//366
f 236//236 235//235 366//366
f 366//366 235//235 238//238
f 366//366 238//238 367//367
f 238//238 237//237 367//367
f 367//367 237//237 240//240
f 367//367 240//240 368//368
f 240//240 239//239 368//368
f 368//368 239//239 242//242
f 368//368 242//242 369//369
f 242//242 241//241 369//369
f 369//369 241//241 245//245
f 369//369 245//245 370//370
f 246//246 371//371 243//243
f 243//243 371//371 370//370
f 243//243 370//370 244//244
f 244//244 370//370 245//245
f 246//246 247//247 371//371
f 371//371 247//247 248//248
f 371//371 248//248 372//372
f 248//248 249//249 372//372
f 372//372 249//249 250//250
f 372//372 250//250 373//373
f 250//250 251//251 373//373
f 373//373 251//251 252//252
f 373//373 252//252 374//374
f 255//255 375//375 254//254
f 254//254 375//375 374//374
f 254//254 374//374 253//253
f 253//253 374//374 252//252
f 255//255 211//211 375//375
f 375//375 211//211 257//257
f 375//375 257//257 376//376
f 257//257 256//256 376//376
f 376//376 256//256 259//259
f 376//376 259//259 377//377
f 259//259 258//258 377//377
f 377//377 258//258 261//261
f 377//377 261//261 378//378
f 261//261 260//260 378//378
f 378//378 260//260 263//263
f 378//378 263//263 379//379
f 265//265 380//380 266//266
f 266//266 380//380 379//379
f 266//266 379//379 262//262
f 262//262 379//379 263//263
f 265//265 264//264 380//380
f 380//380 264//264 268//268
f 380//380 268//268 381//381
f 268//268 267//267 381//381
f 381//381 267//267 270//270
f 381//381 270//270 382//382
f 270//270 269//269 382//382
f 382//382 269//269 272//272
f 382//382 272//272 383//383
f 272//272 271//271 383//383
f 383//383 271//271 274//274
f 383//383 274//274 384//384
f 274//274 273//273 384//384
f 384//384 273//273 276//276
f 384//384 276//276 385//385
f 276//276 275//275 385//385
f 385//385 275//275 279//279
f 385//385 279//279 386//386
f 280//280 387//387 277//277
f 277//277 387//387 386//386
f 277//277 386//386 278//278
f 278//278 386//386 279//279
f 280//280 281//281 387//387
f 387//387 281//281 282//282
f 387//387 282//282 388//388
f 282//282 283//283 388//388
f 388//388 283//283 284//284
f 388//388 284//284 389//389
f 284//284 285//285 389//389
f 389//389 285//285 286//286
f 389//389 286//286 390//390
f 289//289 391//391 288//288
f 288//288 391//391 390//390
f 288//288 390//390 287//287
f 287//287 390//390 286//286
f 289//289 210//210 391//391
f 391//391 210//210 291//291
f 391//391 291//291 392//392
f 291//291 290//290 392//392
f 392//392 290//290 293//293
f 392//392 293//293 393//393
f 293//293 292//292 393//393
f 393//393 292//292 295//295
f 393//393 295//295 394//394
f 295//295 294//294 394//394
f 394//394 294//294 297//297
f 394//394 297//297 395//395
f 297//297 296//296 395//395
f 395//395 296//296 302//302
f 395//395 302//302 396//396
f 302//302 301//301 396//396
f 396//396 301//301 300//300
f 396//396 300//300 355//355
f 355//355 300//300 299//299
f 355//355 299//299 298//298
f 355//355 354//354 397//397
f 394//394 395//395 397//397
f 397//397 395//395 396//396
f 397//397 396//396 355//355
f 391//391 392//392 397//397
f 397//397 392//392 393//393
f 397//397 393//393 394//394
f 388//388 389//389 397//397
f 397//397 389//389 390//390
f 397//397 390//390 391//391
f 385//385 386//386 397//397
f 397//397 386//386 387//387
f 397//397 387//387 388//388
f 382//382 383//383 397//397
f 397//397 383//383 384//384
f 397//397 384//384 385//385
f 379//379 380//380 397//397
f 397//397 380//380 381//381
f 397//397 381//381 382//382
f 376//376 377//377 397//397
f 397//397 377//377 378//378
f 397//397 378//378 379//379
f 373//373 374//374 397//397
f 397//397 374//374 375//375
f 397//397 375//375 376//376
f 370//370 371//371 397//397
f 397//397 371//371 372//372
f 397//397 372//372 373//373
f 367//367 368//368 397//397
f 397//397 368//368 369//369
f 397//397 369//369 370//370
f 364//364 365//365 397//397
f 397//397 365//365 366//366
f 397//397 366//366 367//367
f 361//361 362//362 397//397
f 397//397 362//362 363//363
f 397//397 363//363 364//364
f 358//358 359//359 397//397
f 397//397 359//359 360//360
f 397//397 360//360 361//361
f 354//354 356//356 397//397
f 397//397 356//356 357//357
f 397//397 357//357 358//358
# 790 faces, 0 coords texture

# End of File
